…
``` r
storeDept_df <-
  train_df %>%
  select(storeDept, Store, Dept, Date, Weekly_Sales) %>%
  group_by(storeDept) %>%
  do(mergeTS(.)) %>%
  ungroup() %>%
  arrange(Store, Dept)

storeDept_df
```

    ## # A tibble: 451,594 x 5
    ##    Date       storeDept Store  Dept Weekly_Sales
    ##    <date>     <chr>     <dbl> <dbl>        <dbl>
    ##  1 2010-02-05 1_1           1     1       24924.
    ##  2 2010-02-12 1_1           1     1       46039.
    ##  3 2010-02-19 1_1           1     1       41596.
    ##  4 2010-02-26 1_1           1     1       19404.
    ##  5 2010-03-05 1_1           1     1       21828.
    ##  6 2010-03-12 1_1           1     1       21043.
    ##  7 2010-03-19 1_1           1     1       22137.
    ##  8 2010-03-26 1_1           1     1       26229.
    ##  9 2010-04-02 1_1           1     1       57258.
    ## 10 2010-04-09 1_1           1     1       42961.
    ## # ... with 451,584 more rows
…
testDates <- tibble("Date" = seq(startTest, endTest, by = 7))
final <- 
  cbind(testDates, final_fc) %>% 
  pivot_longer(!Date, names_to = "storeDept", values_to = "Weekly_Sales")

(my_forecasts <-
  test_df %>%
  left_join(final, by = c("storeDept", "Date")) %>% 
  replace_na(list(Weekly_Sales = 0)) %>%
  mutate(Id = paste0(storeDept, "_", Date)) %>%
  select(Id, Weekly_Sales))
```

    ## # A tibble: 115,064 x 2
    ##    Id             Weekly_Sales
    ##    <chr>                 <dbl>
    ##  1 1_1_2012-11-02       36278.
    ##  2 1_1_2012-11-09       20629.
    ##  3 1_1_2012-11-16       19053.
    ##  4 1_1_2012-11-23       19236.
    ##  5 1_1_2012-11-30       24257.
    ##  6 1_1_2012-12-07       33747.
    ##  7 1_1_2012-12-14       45632.
    ##  8 1_1_2012-12-21       33258.
    ##  9 1_1_2012-12-28       37835.
    ## 10 1_1_2013-01-04       16818.
    ## # ... with 115,054 more rows
…
